%YAML 1.1
%TAG !u! tag:unity3d.com,2011:
--- !u!1045 &1
EditorBuildSettings:
  m_ObjectHideFlags: 0
  serializedVersion: 2
  m_Scenes:
  - enabled: 1
    path: Assets/Simple Multiplayer/My Scenes/GooglePlayLogin.unity
    guid: 9bdc14d0615c2a9419e428bec58cbdf6
  - enabled: 1
    path: Assets/Simple Multiplayer/My Scenes/Menu.unity
    guid: 9fb6876144a848140a5aced103763ce2
  - enabled: 1
    path: Assets/Simple Multiplayer/My Scenes/Awal.unity
    guid: 3a09cacf78316334ba3d27d733c21809
  - enabled: 1
    path: Assets/Simple Multiplayer/My Scenes/Main.unity
    guid: b09543d4707e822408894fd5d14d739f
  - enabled: 1
    path: Assets/Simple Multiplayer/My Scenes/Player2Win.unity
    guid: a8f8f097403381545b0961f970675be7
  - enabled: 1
    path: Assets/Simple Multiplayer/My Scenes/Player1Win.unity
    guid: 422c37b0eb61e894c9b872622091f7b3
  - enabled: 1
    path: Assets/Simple Multiplayer/My Scenes/Credit.unity
    guid: b842b275a99d7ee4ea33d6c7d841b80f
  m_configObjects: {}
